Funcoes.c:27:6:calcula_bateria	8	static
Funcoes.c:44:6:calcula_temperatura	40	static
Funcoes.c:78:6:calcula_Vbat	4	static
Funcoes.c:91:6:Prepara_Envio_Normal	8	static,ignoring_inline_asm
Funcoes.c:114:6:Preparar_Pacotes_full	16	static,ignoring_inline_asm
Funcoes.c:165:6:Preparar_Envio_Duplo	8	static,ignoring_inline_asm
Funcoes.c:196:6:delay_ms	16	static
Funcoes.c:205:6:Transf_Pontos	16	static
