iis3dwb_reg.c:7:9:iis3dwb_read_reg	40	static
iis3dwb_reg.c:13:9:iis3dwb_write_reg	40	static
iis3dwb_reg.c:19:9:iis3dwb_from_lsb_to_celsius	16	static
iis3dwb_reg.c:23:9:iis3dwb_xl_full_scale_set	24	static
iis3dwb_reg.c:36:9:iis3dwb_xl_data_rate_set	24	static
iis3dwb_reg.c:49:9:iis3dwb_block_data_update_set	24	static
iis3dwb_reg.c:62:9:iis3dwb_xl_axis_selection_set	32	static
iis3dwb_reg.c:85:9:iis3dwb_xl_flag_data_ready_get	24	static
iis3dwb_reg.c:94:9:iis3dwb_temp_flag_data_ready_get	24	static
iis3dwb_reg.c:103:9:iis3dwb_temperature_raw_get	24	static
iis3dwb_reg.c:113:9:iis3dwb_acceleration_raw_get	32	static
iis3dwb_reg.c:134:9:iis3dwb_device_id_get	24	static
iis3dwb_reg.c:140:9:iis3dwb_reset_set	24	static
iis3dwb_reg.c:153:9:iis3dwb_reset_get	24	static
iis3dwb_reg.c:162:9:iis3dwb_xl_filter_lp2_set	24	static
iis3dwb_reg.c:175:9:iis3dwb_xl_hp_path_on_out_set	32	static
