core_cm4.h:1933:34:__NVIC_SystemReset	4	static,ignoring_inline_asm
main.c:198:5:main	48	static
main.c:613:6:SystemClock_Config	96	static
main.c:664:6:PeriphCommonClock_Config	152	static
main.c:691:13:MX_ADC1_Init	48	static
main.c:755:13:MX_ADC2_Init	32	static
main.c:811:13:MX_ADC3_Init	32	static
main.c:867:13:MX_RTC_Init	88	static
main.c:1018:13:MX_SPI1_Init	8	static
main.c:1058:13:MX_SPI2_Init	8	static
main.c:1098:13:MX_TIM2_Init	40	static
main.c:1143:13:MX_GPIO_Init	48	static
main.c:1217:6:HAL_GPIO_EXTI_Callback	16	static
main.c:1293:6:HAL_TIM_PeriodElapsedCallback	16	static
main.c:1332:6:routine_spirit_driver	8	static
main.c:1368:6:Iniciar_Spirit1	24	static
main.c:1487:6:Transmite_Pacotes	8	static
main.c:1586:6:Desliga_Spirit1	8	static
main.c:1598:6:Coleta_Data_Hora	8	static
main.c:1628:6:Leitura_ADC	8	static
main.c:1696:6:Convert_to_int	24	static
main.c:1704:6:Find_Line_Feed	4	static
main.c:1723:6:Arquivo_JSON	64	static
main.c:2030:6:Error_Handler	4	static,ignoring_inline_asm
