spirit1.c:12:19:SpiritSpiReadRegisters	288	static
spirit1.c:26:19:SpiritSpiWriteRegisters	288	static
spirit1.c:40:19:SdkEvalSpiReadFifo	128	static
spirit1.c:54:19:SdkEvalSpiWriteFifo	136	static
spirit1.c:68:19:SpiritSpiCommandStrobes	40	static
spirit1.c:81:6:SpiritComputeXtalFrequency	4	static
spirit1.c:85:6:SpiritExtraCurrent	16	static
spirit1.c:98:6:SpiritIdentificationRFBoard	16	static
spirit1.c:110:6:SpiritGeneralSetExtRef	24	static
spirit1.c:125:6:SpiritRangeExtInit	16	static
spirit1.c:131:9:SpiritBaseConfiguration	40	static
spirit1.c:242:9:SpiritVcoCalibration	24	static
spirit1.c:321:19:Spirit1PktBasicSetPayloadLength	24	static
spirit1.c:330:6:SpiritTimerSetRxTimeoutMs	24	static
spirit1.c:337:6:SpiritTimerComputeRxTimeoutValues	40	static
spirit1.c:370:9:SpiritLinearFifoReadNumElementsRxFifo	16	static
