stm32l4xx_hal_msp.c:64:6:HAL_MspInit	16	static
stm32l4xx_hal_msp.c:88:6:HAL_ADC_MspInit	56	static
stm32l4xx_hal_msp.c:171:6:HAL_ADC_MspDeInit	16	static
stm32l4xx_hal_msp.c:257:6:HAL_RTC_MspInit	160	static
stm32l4xx_hal_msp.c:294:6:HAL_RTC_MspDeInit	16	static
stm32l4xx_hal_msp.c:320:6:HAL_SPI_MspInit	56	static
stm32l4xx_hal_msp.c:382:6:HAL_SPI_MspDeInit	16	static
stm32l4xx_hal_msp.c:431:6:HAL_TIM_Base_MspInit	24	static
stm32l4xx_hal_msp.c:456:6:HAL_TIM_Base_MspDeInit	16	static
