stm32l4xx_hal_msp.c:64:6:HAL_MspInit	16	static
stm32l4xx_hal_msp.c:86:6:HAL_RTC_MspInit	160	static
stm32l4xx_hal_msp.c:123:6:HAL_RTC_MspDeInit	16	static
stm32l4xx_hal_msp.c:149:6:HAL_SPI_MspInit	48	static
stm32l4xx_hal_msp.c:186:6:HAL_SPI_MspDeInit	16	static
stm32l4xx_hal_msp.c:216:6:HAL_TIM_Base_MspInit	24	static
stm32l4xx_hal_msp.c:241:6:HAL_TIM_Base_MspDeInit	16	static
